
PerW,FFFF0310	;unsigned char ISXFuelReplace1[0xDC] = FFFF-max value, 0-unsigned, 2-power/econ, 10-Map ID
0000,0000,0000,0005,0005,000A,000A,0014,0014,0014,0014,0014,0014,0014,0014,0014
0000,0000,0000,0005,0005,000A,000A,0014,0014,0014,0014,0014,0014,0014,0014,0014
0000,0000,0000,0005,0005,000A,000A,0014,0014,0014,0014,0014,0014,0014,0014,0014
0000,0000,0000,0005,0005,000A,000A,0014,0014,0014,0014,0014,0014,0014,0014,0014
0000,0000,0000,0005,0005,000A,000A,0014,0014,0014,0014,0014,0014,0014,0014,0014
0000,0000,0000,0005,0005,000A,000A,0014,0014,0014,0014,0014,0014,0014,0014,0014
0000,0000,0000,0005,0005,000A,000A,0014,0014,0014,0014,0014,0014,0014,0014,0014
0000,0000,0000,0005,0005,000A,000A,0014,0014,0014,0014,0014,0014,0014,0014,0014
0000,0000,0000,0005,0005,000A,000A,0014,0014,0014,0014,0014,0014,0014,0014,0014
0000,0000,0000,0005,0005,000A,000A,0014,0014,0014,0014,0014,0014,0014,0014,0014
0000,0000,0000,0005,0005,000A,000A,0014,0014,0014,0014,0014,0014,0014,0014,0014
0000,0000,0000,0005,0005,000A,000A,0014,0014,0014,0014,0014,0014,0014,0014,0014
0000,0000,0000,0005,0005,000A,000A,0014,0014,0014,0014,0014,0014,0014,0014,0014
0000,0000,0000,0005,0005,000A,000A,0014,0014,0014,0014,0014,0014,0014,0014,0014
0000,0000,0000,0005,0005,000A,000A,0014,0014,0014,0014,0014,0014,0014,0014,0014
0000,0000,0000,0005,0005,000A,000A,0014,0014,0014,0014,0014,0014,0014,0014,0014


End

