^D:\VISUALSTUDIO\RUN 1ST TUNING V6\STDAFX.CPP
/c /Zi /nologo /W3 /WX- /diagnostics:classic /O2 /Oy- /D WIN32 /D NDEBUG /D _CONSOLE /D _VC80_UPGRADE=0x0710 /D _MBCS /Gm- /EHsc /MT /GS /fp:precise /Zc:wchar_t /Zc:forScope /Zc:inline /Yc"stdafx.h" /Fp"RELEASE\RUN1ST V6.1A.PCH" /Fo"RELEASE\\" /Fd"RELEASE\VC141.PDB" /Gd /TP /analyze- D:\VISUALSTUDIO\RUN 1ST TUNING V6\STDAFX.CPP
^D:\VISUALSTUDIO\RUN 1ST TUNING V6\RUN1ST V6.1B.CPP
/c /Zi /nologo /W3 /WX- /diagnostics:classic /O2 /Oy- /D WIN32 /D NDEBUG /D _CONSOLE /D _VC80_UPGRADE=0x0710 /D _MBCS /Gm- /EHsc /MT /GS /fp:precise /Zc:wchar_t /Zc:forScope /Zc:inline /Yu"stdafx.h" /Fp"RELEASE\RUN1ST V6.1A.PCH" /Fo"RELEASE\\" /Fd"RELEASE\VC141.PDB" /Gd /TP /analyze- D:\VISUALSTUDIO\RUN 1ST TUNING V6\RUN1ST V6.1B.CPP
